<?xml version="1.0" encoding="UTF-8"?>
<!DOCTYPE svg  PUBLIC '-//W3C//DTD SVG 1.1//EN'  'http://www.w3.org/Graphics/SVG/1.1/DTD/svg11.dtd' [
	<!ENTITY ns_extend "http://ns.adobe.com/Extensibility/1.0/">
	<!ENTITY ns_ai "http://ns.adobe.com/AdobeIllustrator/10.0/">
	<!ENTITY ns_graphs "http://ns.adobe.com/Graphs/1.0/">
	<!ENTITY ns_vars "http://ns.adobe.com/Variables/1.0/">
	<!ENTITY ns_imrep "http://ns.adobe.com/ImageReplacement/1.0/">
	<!ENTITY ns_sfw "http://ns.adobe.com/SaveForWeb/1.0/">
	<!ENTITY ns_custom "http://ns.adobe.com/GenericCustomNamespace/1.0/">
	<!ENTITY ns_adobe_xpath "http://ns.adobe.com/XPath/1.0/">
]>
<svg enable-background="new 0 0 308.5 64.8" version="1.1" viewBox="0 0 308.5 64.8" xml:space="preserve" xmlns="http://www.w3.org/2000/svg" xmlns:xlink="http://www.w3.org/1999/xlink">
<style type="text/css">
	.st0{fill:#FFFFFF;}
	.st1{fill:#444545;}
	.st2{fill:#F3704B;}
	.st3{fill:#A3CE54;}
	.st4{fill:#5AC0ED;}
	.st5{fill-rule:evenodd;clip-rule:evenodd;fill:#60AA45;}
	.st6{fill-rule:evenodd;clip-rule:evenodd;fill:#FFFFFF;}
	.st7{fill-rule:evenodd;clip-rule:evenodd;fill:#D3E7B5;}
	.st8{fill:#FFFFFF;stroke:#444545;stroke-width:2;stroke-miterlimit:10;}
	.st9{fill-rule:evenodd;clip-rule:evenodd;fill:#87D4E8;}
	.st10{fill:#FDD032;}
</style>
<switch>
	<foreignObject width="1" height="1" requiredExtensions="http://ns.adobe.com/AdobeIllustrator/10.0/">
	</foreignObject>
	<g>
				<image transform="matrix(7.841 0 0 7.841 235.4 -137.58)" width="176" height="41" display="none" overflow="visible" xlink:href="data:image/jpeg;base64,/9j/4AAQSkZJRgABAgEACQAJAAD/7AARRHVja3kAAQAEAAAAHgAA/+4AIUFkb2JlAGTAAAAAAQMA EAMCAwYAAAH6AAADBQAABc3/2wCEABALCwsMCxAMDBAXDw0PFxsUEBAUGx8XFxcXFx8eFxoaGhoX Hh4jJSclIx4vLzMzLy9AQEBAQEBAQEBAQEBAQEABEQ8PERMRFRISFRQRFBEUGhQWFhQaJhoaHBoa JjAjHh4eHiMwKy4nJycuKzU1MDA1NUBAP0BAQEBAQEBAQEBAQP/CABEIACgArQMBIgACEQEDEQH/ xACWAAACAwEBAQAAAAAAAAAAAAAABAEDBQIGBwEBAAAAAAAAAAAAAAAAAAAAABAAAgMAAAYDAQEA AAAAAAAAAwQBAgUAMBESExRQFQY0NREAAgEDAgQCBgcJAQAAAAAAAQIDABESIQQxQXETUTIwYYEi UnIQobHB0UIzkWKCkiNTcxQ0BRIBAAAAAAAAAAAAAAAAAAAAUP/aAAwDAQACEQMRAAAA+gCNg0LS MCEjxn3jGA154040cI2dfyXohwQkeM+4aEbBozbSvRT6Fq34FuXOSqepMhhm88wy6wZ7ctlA3wKN 12iM6NBD1F4AAAAAAEYAGQ8BuOASAAAAAAf/2gAIAQIAAQUA+B//2gAIAQMAAQUA+B//2gAIAQEA AQUA5EzERob97WyE7vH03KgZzNyD25JHi3OG+h5HmpWCi17S5G3LODcZozDrTBV7uzf9CzYSoQ3M Vww8rPQUl5nRQlAuW1LSRG3LOCdYq3Vp4pqEcqPN0YcqVqw3GmtFandq8ZHSK8FvJn1D2FpU7/tc 7qyb0WQkWYaq3+k7vZwkqhDoOWcZwP8AR/R/0/m+vqV8n2mZ0ZIuNuzU0ZosBW98+jVWn9j+Pg+f FzCWaqRRWFhuKQzWivY2RPq1dVvvWS8JddSh6sjAwv8ARIcI5aqrG2hDHGUrKqVFYo5ZKPc9Bihh rMRVUHrr/Wjh5tb2Q8mYiY0MItbXqYc4t70chPzs8n//2gAIAQICBj8AB//aAAgBAwIGPwAH/9oA CAEBAQY/APQEk2A1JoxbE4qOM3En5Qfto7jdEyxJ8ZyDN4e9Xb/8/wDodvR2j0BPhjw0oQbqySnR XHBj9x9E232cfcZPO7GyqaAnjTA8WVuHsNZIucrsEjTxY0JCMXBKyL4MOIp9tt0Q4KGJYkcaTb7q NV7oODIbi45U6bSJSkZxMjmwJ9QoruI1VbaMrX16UsKGxmJDfIBqPbSRRi7ObClhi/UIxTrzauyX xJBYtx4UiB8yRkDa1qjkY3cDF+q6VJttuiERqrEsSPMKTa7qMK0oJjZDcHHiKmSBIysL4XYkGpH3 CoMVJXEk6iiHXCUalfEeIqHbgArKCSeYtRkaOMpkFFmN9Tpyr9OL+Y/hW4Q/qCVsvHXh9DOFMkey W4RfzSt+Ap1aJoYt37yq39wcbda3OHn7Ixvwveml3TE7qElcOAQHmOtO20mCJIcijLlY+qjtNziz Y5q66aXtwqL4cNOtzR302hYHAn8qcz7aaQ+QaIPAUPkao/k++pb8O5p+wVvO1budpML8L20o7ncM W3cV0KHQR9B663hglWNe7qCt6m/2JBJdTjiLW0qDc7f3dzEt1PxD4TW0kGjBXDrzDDiK/jT7foM8 EhhlPmK8G6ig8u4LgflsAPbTLlmzsXZvEmk97B4nDo3gRUm6yuXULj0pd1E2DgWkHJx66Zo9yVVj fEgG3SmnkkMszCxY8h4CoJX8kUg7v+NjZj7KO3EwjQ2BxI8o5V/0fWKEsUubgEY3HPpQmEiq6LbB ja/So42FnIyfq2tSbrK/cVVx8MaXdxNgxFpV5OKlkh3GAlbIriDUizTdwOuI0ta9JDfLAWvQ3iHE 2OSciTzrtFsfeDX6H0RBFweIoy7I5Ide1exHy1aRWQ/vAj7aEmDuuLD3QTqfqpd3uVsUFo4uNvW3 r9F//9k=">
			</image>
					<circle class="st0" cx="156.6" cy="32.4" r="32.4"/>
					<path class="st1" d="m202.5 47.5v-29.6h12.6c5.6 0 8.4 2.4 8.4 7.1 0 3.8-2.8 6.7-8.3 8.5l10.2 14h-5.1l-9.3-13.4v-2.5c5.7-0.9 8.5-3.1 8.5-6.5 0-2.7-1.6-4.1-4.7-4.1h-8.4v26.4h-3.9z"/>
					<path class="st1" d="M248.8,17.9V21h-15.5v9.9h14.8V34h-14.8v10.3h15.8v3.1h-19.7V17.9H248.8z"/>
					<path class="st1" d="M254.9,47.5V17.9h3.8l18.1,23.8V17.9h3.6v29.6h-3.8l-18.1-24.1v24.1H254.9z"/>
					<path class="st1" d="M307.5,17.9V21h-9.3v26.5h-3.8V21H285v-3.1H307.5z"/>
					<path class="st1" d="m25.9 46.3c-2.6 0.8-5.3 1.2-8.3 1.2-10.3 0-15.5-5.1-15.5-15.4 0-9.7 5.2-14.6 15.5-14.6 3 0 5.7 0.4 8.3 1.2v3.3c-2.6-1-5.2-1.4-7.9-1.4-8.1 0-12.1 3.8-12.1 11.5 0 8.2 4 12.3 12.1 12.3 2.7 0 5.3-0.5 7.9-1.4v3.3z"/>
					<path class="st1" d="M33.2,47.3h-4l12.6-29.6H46l12.6,29.6h-4.2L50.5,38h-9.8l1.1-3.1h7.5l-5.5-13.4L33.2,47.3z"/>
					<path class="st1" d="m62.7 47.3v-29.6h12.6c5.6 0 8.4 2.4 8.4 7.1 0 3.8-2.8 6.7-8.3 8.5l10.2 14h-5.1l-9.3-13.3v-2.5c5.7-0.9 8.5-3.1 8.5-6.5 0-2.7-1.6-4.1-4.7-4.1h-8.4v26.4h-3.9z"/>
					<path class="st1" d="m89.2 46.3v-3.5c3.1 1.1 6.5 1.7 10.1 1.7 5.1 0 7.6-1.9 7.6-5.6 0-3.2-1.9-4.8-5.6-4.8h-3.8c-6.2 0-9.3-2.7-9.3-8.1 0-5.7 4-8.5 11.9-8.5 3.4 0 6.7 0.4 9.6 1.2v3.5c-3-1.1-6.2-1.7-9.6-1.7-5.4 0-8.1 1.8-8.1 5.4 0 3.2 1.8 4.8 5.5 4.8h3.8c6.3 0 9.5 2.7 9.5 8.1 0 5.8-3.8 8.7-11.5 8.7-3.6 0-6.9-0.4-10.1-1.2z"/>
						<path class="st2" d="m139.3 43.1h27.4v-24.9h9.1v24.9l7.3 3.7s0.1 0.1 1.2 0.6c2.4-4.5 3.8-9.6 3.8-15.1 0-14.7-10-27-23.6-30.5l-25.2 41.3z"/>
						<path class="st2" d="m129.8 43.1l25.8-42.2c-16.9 0.5-30.5 14.4-30.5 31.5 0 4.8 1.1 9.4 3 13.5 0.3-0.5 1.7-2.8 1.7-2.8z"/>
						<path class="st2" d="M166.7,50.4h-35.9c5.7,8.1,15.1,13.5,25.8,13.5c3.5,0,6.9-0.6,10.1-1.7V50.4z"/>
						<path class="st2" d="m175.8 50.4v6.9c2.5-2 4.8-4.3 6.6-6.9h-6.6z"/>
						<path class="st2" d="m183.1 46.8s0.1 0.1 1.2 0.6c2.4-4.5 3.8-9.6 3.8-15.1"/>
	</g>
</switch>
</svg>
