<?xml version="1.0" encoding="utf-8"?>
<!-- Generator: Adobe Illustrator 21.0.0, SVG Export Plug-In . SVG Version: 6.00 Build 0)  -->
<svg version="1.1" id="Layer_1" xmlns="http://www.w3.org/2000/svg" xmlns:xlink="http://www.w3.org/1999/xlink" x="0px" y="0px"
	 viewBox="0 0 308.5 64.8" style="enable-background:new 0 0 308.5 64.8;" xml:space="preserve">
<style type="text/css">
	.st0{fill:#FFFFFF;}
	.st1{enable-background:new    ;}
	.st2{fill:#444545;}
	.st3{fill:#F3704B;}
</style>
<title>Asset 1</title>
<g id="Layer_2">
	<g id="Layer_1-2">
		<circle class="st0" cx="156.6" cy="32.4" r="32.4"/>
		<g class="st1">
			<path class="st2" d="M202.4,47.4V17.9h12.6c5.6,0,8.4,2.4,8.4,7.1c0,3.8-2.8,6.7-8.3,8.5l10.2,14h-5.1L211,34.1v-2.5
				c5.7-0.9,8.5-3.1,8.5-6.5c0-2.7-1.6-4.1-4.7-4.1h-8.4v26.4H202.4z"/>
			<path class="st2" d="M248.8,17.9V21h-15.5v9.9h14.8V34h-14.8v10.3h15.8v3.1h-19.7V17.9H248.8z"/>
			<path class="st2" d="M254.9,47.4V17.9h3.8l18.1,23.8V17.9h3.6v29.6h-3.8l-18.1-24.1v24.1H254.9z"/>
			<path class="st2" d="M307.5,17.9V21h-9.3v26.5h-3.8V21H285v-3.1H307.5z"/>
		</g>
		<g class="st1">
			<path class="st2" d="M25.9,46.3c-2.6,0.8-5.3,1.2-8.3,1.2c-10.3,0-15.5-5.1-15.5-15.4c0-9.7,5.2-14.6,15.5-14.6
				c3,0,5.7,0.4,8.3,1.2v3.3c-2.6-1-5.2-1.4-7.9-1.4c-8.1,0-12.1,3.8-12.1,11.5c0,8.2,4,12.3,12.1,12.3c2.7,0,5.3-0.5,7.9-1.4V46.3z
				"/>
			<path class="st2" d="M33.2,47.3h-4l12.6-29.6H46l12.6,29.6h-4.2L50.5,38h-9.8l1.1-3.1h7.5l-5.5-13.4L33.2,47.3z"/>
			<path class="st2" d="M62.7,47.3V17.7h12.6c5.6,0,8.4,2.4,8.4,7.1c0,3.8-2.8,6.7-8.3,8.5l10.2,14h-5.1L71.2,34v-2.5
				c5.7-0.9,8.5-3.1,8.5-6.5c0-2.7-1.6-4.1-4.7-4.1h-8.4v26.4H62.7z"/>
			<path class="st2" d="M89.3,46.3v-3.5c3.1,1.1,6.5,1.7,10.1,1.7c5.1,0,7.6-1.9,7.6-5.6c0-3.2-1.9-4.8-5.6-4.8h-3.8
				c-6.2,0-9.3-2.7-9.3-8.1c0-5.7,4-8.5,11.9-8.5c3.4,0,6.7,0.4,9.6,1.2v3.5c-3-1.1-6.2-1.7-9.6-1.7c-5.4,0-8.1,1.8-8.1,5.4
				c0,3.2,1.8,4.8,5.5,4.8h3.8c6.3,0,9.5,2.7,9.5,8.1c0,5.8-3.8,8.7-11.5,8.7C95.7,47.5,92.4,47.1,89.3,46.3z"/>
		</g>
		<path class="st3" d="M139.3,43.1h27.4V18.2h9.1v24.9l7.3,3.7l1.2,0.6c8.3-15.3,2.7-34.4-12.6-42.8c-2.2-1.2-4.6-2.2-7.1-2.8
			L139.3,43.1z"/>
		<path class="st3" d="M129.8,43.1l25.8-42.2c-17.4,0.5-31.1,15.1-30.5,32.5c0.1,4.3,1.2,8.6,3,12.5L129.8,43.1z"/>
		<path class="st3" d="M166.7,50.5h-35.9c8,11.5,22.7,16.3,35.9,11.8L166.7,50.5z"/>
		<path class="st3" d="M175.8,50.5v6.9c2.5-2,4.8-4.3,6.6-6.9H175.8z"/>
		<path class="st3" d="M183.1,46.8l1.2,0.6c2.5-4.6,3.8-9.8,3.8-15.1"/>
	</g>
</g>
</svg>
